{"users":[{"id":38,"email":"sdfghj@mail.ru","role":"user","name":"asdfghjk","phone":"546789","school":null,"birthdate":null,"created_at":"2020-01-19T10:13:38.197Z"},{"id":37,"email":"naukanove@gmail.com","role":"user","name":"aldiyar","phone":"87475587398","school":null,"birthdate":"2019-12-13T12:32:00.000Z","created_at":"2019-12-04T12:03:34.791Z"},{"id":36,"email":"ala@mail.ru","role":"user","name":"aiiii","phone":"77777777","school":null,"birthdate":null,"created_at":"2019-12-04T08:51:54.259Z"},{"id":35,"email":"aaa@mail.ru","role":"user","name":"def","phone":"87013139696","school":null,"birthdate":null,"created_at":"2019-12-04T08:50:07.320Z"},{"id":34,"email":"asd@gmail.com","role":"user","name":"def","phone":"87013131399","school":null,"birthdate":null,"created_at":"2019-12-04T08:48:19.187Z"},{"id":33,"email":"ala@ala.kz","role":"admin","name":"ala","phone":"77770707","school":null,"birthdate":null,"created_at":"2019-12-03T11:41:16.755Z"},{"id":32,"email":"samat@gmail.kz25","role":"user","name":"samat25","phone":"87082225225","school":null,"birthdate":null,"created_at":"2019-11-28T09:48:08.473Z"},{"id":31,"email":"samat@gmail.kz24","role":"user","name":"samat24","phone":"87082225224","school":null,"birthdate":null,"created_at":"2019-11-28T09:48:08.414Z"},{"id":30,"email":"samat@gmail.kz23","role":"user","name":"samat23","phone":"87082225223","school":null,"birthdate":null,"created_at":"2019-11-28T09:48:08.355Z"},{"id":29,"email":"samat@gmail.kz22","role":"user","name":"samat22","phone":"87082225222","school":null,"birthdate":null,"created_at":"2019-11-28T09:48:08.296Z"},{"id":28,"email":"samat@gmail.kz21","role":"user","name":"samat21","phone":"87082225221","school":null,"birthdate":null,"created_at":"2019-11-28T09:48:08.237Z"},{"id":27,"email":"samat@gmail.kz20","role":"user","name":"samat20","phone":"87082225220","school":null,"birthdate":null,"created_at":"2019-11-28T09:48:08.178Z"},{"id":26,"email":"samat@gmail.kz19","role":"user","name":"samat19","phone":"87082225219","school":null,"birthdate":null,"created_at":"2019-11-28T09:48:08.118Z"},{"id":25,"email":"samat@gmail.kz18","role":"user","name":"samat18","phone":"87082225218","school":null,"birthdate":null,"created_at":"2019-11-28T09:48:08.059Z"},{"id":24,"email":"samat@gmail.kz17","role":"user","name":"samat17","phone":"87082225217","school":null,"birthdate":null,"created_at":"2019-11-28T09:48:08.000Z"},{"id":23,"email":"samat@gmail.kz16","role":"user","name":"samat16","phone":"87082225216","school":null,"birthdate":null,"created_at":"2019-11-28T09:48:07.941Z"},{"id":22,"email":"samat@gmail.kz15","role":"user","name":"samat15","phone":"87082225215","school":null,"birthdate":null,"created_at":"2019-11-28T09:48:07.880Z"},{"id":21,"email":"samat@gmail.kz14","role":"user","name":"samat14","phone":"87082225214","school":null,"birthdate":null,"created_at":"2019-11-28T09:48:07.821Z"},{"id":20,"email":"samat@gmail.kz13","role":"user","name":"samat13","phone":"87082225213","school":null,"birthdate":null,"created_at":"2019-11-28T09:48:07.762Z"},{"id":19,"email":"samat@gmail.kz12","role":"user","name":"samat12","phone":"87082225212","school":null,"birthdate":null,"created_at":"2019-11-28T09:48:07.702Z"},{"id":18,"email":"samat@gmail.kz11","role":"user","name":"samat11","phone":"87082225211","school":null,"birthdate":null,"created_at":"2019-11-28T09:48:07.643Z"},{"id":17,"email":"samat@gmail.kz10","role":"user","name":"samat10","phone":"87082225210","school":null,"birthdate":null,"created_at":"2019-11-28T09:48:07.578Z"},{"id":16,"email":"samat@gmail.kz9","role":"user","name":"samat9","phone":"8708222529","school":null,"birthdate":null,"created_at":"2019-11-28T09:48:07.514Z"},{"id":15,"email":"samat@gmail.kz8","role":"user","name":"samat8","phone":"8708222528","school":null,"birthdate":null,"created_at":"2019-11-28T09:48:07.455Z"},{"id":14,"email":"samat@gmail.kz7","role":"user","name":"samat7","phone":"8708222527","school":null,"birthdate":null,"created_at":"2019-11-28T09:48:07.396Z"}],"pagination":{"current_page":1,"next_page":2,"prev_page":null,"total":35,"last_page":2,"to":2,"from":1}}